<?xml version="1.0" encoding="UTF-8"?>
<svg width="30px" height="30px" viewBox="0 0 30 30" version="1.1" xmlns="http://www.w3.org/2000/svg" xmlns:xlink="http://www.w3.org/1999/xlink">
    <title>Group 2</title>
    <g id="Page-1" stroke="none" stroke-width="1" fill="none" fill-rule="evenodd">
        <g id="Group-2">
            <circle id="Oval" fill="#757575" cx="15" cy="15" r="15"></circle>
            <g id="Group" transform="translate(8.000000, 9.000000)" stroke="#FFFFFF" stroke-linecap="square" stroke-width="1.5">
                <line x1="0" y1="7.09090909" x2="3.66110141" y2="10.9478552" id="Line"></line>
                <line x1="4.12708354" y1="11.4545455" x2="14.4822421" y2="0.545454545" id="Line-2" transform="translate(9.304663, 6.000000) rotate(0.000000) translate(-9.304663, -6.000000) "></line>
            </g>
        </g>
    </g>
</svg>