<svg width="21" height="21" viewBox="0 0 21 21" fill="none" xmlns="http://www.w3.org/2000/svg">
<path fill-rule="evenodd" clip-rule="evenodd" d="M1.31613 4.30132C1.00006 5.64695 1 7.29099 1 10.3299V13.5532C1 16.5921 1 18.1116 2.11299 19.0557C3.22599 19.9998 5.01732 19.9998 8.6 19.9998H12.4C15.9826 19.9998 17.7741 19.9998 18.887 19.0557C20 18.1117 20 16.5921 20 13.5532V10.3299C20 8.04193 20 6.61524 19.525 5.64695V15.9707C18.6126 15.9707 17.7376 15.6633 17.0923 15.1159L16.3783 14.5103C15.6931 13.929 15.3504 13.6384 14.962 13.5159C14.5349 13.3813 14.0651 13.3813 13.638 13.5159C13.2496 13.6384 12.9069 13.929 12.2217 14.5103L12.1142 14.6014C11.5581 15.0731 11.2801 15.3089 10.9847 15.3529C10.7551 15.3871 10.5187 15.3485 10.3204 15.2445C10.0654 15.1105 9.91052 14.804 9.60073 14.1909L9.55 14.0905C8.83788 12.6809 8.48176 11.9761 7.86059 11.712C7.54786 11.579 7.19792 11.5219 6.84934 11.5468C6.15694 11.5964 5.51776 12.1386 4.2394 13.2229L2.425 14.7619L1.31613 4.30132C1.41457 4.21782 1.20631 4.3707 1.31613 4.30132Z" fill="white"/>
<path d="M1 8.38889C1 6.36867 1.00224 4.9597 1.14517 3.89661C1.28402 2.86389 1.53797 2.31702 1.9275 1.9275C2.31702 1.53797 2.86389 1.28402 3.89661 1.14517C4.9597 1.00224 6.36867 1 8.38889 1H12.6111C14.6313 1 16.0403 1.00224 17.1033 1.14517C18.1361 1.28402 18.683 1.53797 19.0725 1.9275C19.462 2.31702 19.7159 2.86389 19.8549 3.89661C19.9978 4.9597 20 6.36867 20 8.38889V12.6111C20 14.6313 19.9978 16.0403 19.8549 17.1033C19.7159 18.1361 19.462 18.683 19.0725 19.0725C18.683 19.462 18.1361 19.7159 17.1033 19.8549C16.0403 19.9978 14.6313 20 12.6111 20H8.38889C6.36867 20 4.9597 19.9978 3.89661 19.8549C2.86389 19.7159 2.31702 19.462 1.9275 19.0725C1.53797 18.683 1.28402 18.1361 1.14517 17.1033C1.00224 16.0403 1 14.6313 1 12.6111V8.38889Z" stroke="white"/>
<path d="M13.7755 9.51736C15.042 9.51736 16.0686 8.4907 16.0686 7.22426C16.0686 5.95781 15.042 4.93115 13.7755 4.93115C12.5091 4.93115 11.4824 5.95781 11.4824 7.22426C11.4824 8.4907 12.5091 9.51736 13.7755 9.51736Z" fill="white"/>
</svg>
