<?xml version="1.0" encoding="UTF-8"?>
<svg width="23px" height="25px" viewBox="0 0 23 25" version="1.1" xmlns="http://www.w3.org/2000/svg" xmlns:xlink="http://www.w3.org/1999/xlink">
    <title>Group</title>
    <g id="Page-1" stroke="none" stroke-width="1" fill="none" fill-rule="evenodd">
        <g id="Group">
            <path d="M10.9375328,25 C12.6621328,25 14.0611328,23.6011 14.0611328,21.875 L7.81403284,21.875 C7.81403284,23.6011 9.21295284,25 10.9375328,25 Z M21.4546328,17.6899 C20.5113328,16.6763 18.7461328,15.1514 18.7461328,10.1562 C18.7461328,6.3623 16.0860328,3.3252 12.4991328,2.58008 L12.4991328,1.5625 C12.4991328,0.699707 11.7998328,0 10.9375328,0 C10.0752328,0 9.37604284,0.699707 9.37604284,1.5625 L9.37604284,2.58008 C5.78913284,3.3252 3.12897284,6.3623 3.12897284,10.1562 C3.12897284,15.1514 1.36383284,16.6763 0.420476841,17.6899 C0.127507841,18.0049 -0.0023748091,18.3813 3.28407936e-05,18.75 C0.0054376909,19.5508 0.633855841,20.3125 1.56745284,20.3125 L20.3077328,20.3125 C21.2412328,20.3125 21.8702328,19.5508 21.8750682,18.75 C21.8775328,18.3813 21.7476328,18.0044 21.4546328,17.6899 Z" id="Shape" fill="#FFFFFF" fill-rule="nonzero"></path>
            <rect id="Rectangle" stroke="#1D1E1F" fill="#FF3F34" x="15.5" y="2.5" width="7" height="7" rx="3.5"></rect>
        </g>
    </g>
</svg>