<?xml version="1.0" encoding="UTF-8"?>
<svg width="164px" height="98px" viewBox="0 0 164 98" version="1.1" xmlns="http://www.w3.org/2000/svg" xmlns:xlink="http://www.w3.org/1999/xlink">
    <title>ic-descending_arrow-2</title>
    <g id="Page-1" stroke="none" stroke-width="1" fill="none" fill-rule="evenodd">
        <g id="ic-descending_arrow-2" transform="translate(1.000000, 1.000000)" fill="#FFFFFF" fill-rule="nonzero" stroke="#FFFFFF">
            <path d="M80.6818234,0.0100284461 C81.8309231,-0.0665781939 83.0092472,0.295181916 83.9444296,1.11346654 C84.0947781,1.24502145 84.2361991,1.38644246 84.367754,1.53679093 L84.367754,1.53679093 L160.848913,88.9438297 C161.667198,89.8790121 162.028958,91.0573362 161.952351,92.2064359 C161.875744,93.3555357 161.360771,94.4754109 160.425589,95.2936955 C159.605277,96.0114683 158.552322,96.4071004 157.462318,96.4071004 L157.462318,96.4071004 L4.5,96.4071004 C3.25735932,96.4071004 2.13235932,95.9034207 1.31801949,95.0890809 C0.503679657,94.2747411 0,93.1497411 0,91.9071004 C0,90.8170962 0.395632114,89.7641414 1.11340488,88.9438297 L1.11340488,88.9438297 L77.5945638,1.53679093 C78.4128484,0.601608506 79.5327236,0.0866350961 80.6818234,0.0100284461 Z" id="Triangle" transform="translate(80.981190, 48.203550) scale(-1, 1) rotate(-180.000000) translate(-80.981190, -48.203550) "></path>
        </g>
    </g>
</svg>